#cr-number , date          , desc     , quantity, item-price  , category  , tax-table , account
770101-1234, 2021-01-15    , Munchies , 1       , 10.5        , food      , 12        , 3014
770101-1234,               , Gizmo    , 2       , 12          , generic   , 25        , 3011

cr-number :: YYMMDD-NNNN

date :: iso-date || <blank>

quantity :: decimal

item-price :: item-price excluding VAT, decimal

category :: <string>

tax-table :: 0 || 6 || 12 || 25

account ::= 3001 || 3010 || 3011 || 3012 || 3013 || 3014

3001 == Övriga avgifter
3010 == Fasta medlemsavgifter
3011 == Vidarefakturerat laser-kiosk
3012 == Vidarefakturerat trä-kiosk
3013 == Vidarefakturerat Lootmobilen
3014 == köks-kiosk
